verilog xil_defaultlib  \
"../../../../vivado_project.gen/sources_1/ip/gtwizard_ultrascale_0/sim/gtwizard_ultrascale_v1_7_gthe3_channel.v" \
"../../../../vivado_project.gen/sources_1/ip/gtwizard_ultrascale_0/sim/gtwizard_ultrascale_0_gthe3_channel_wrapper.v" \
"../../../../vivado_project.gen/sources_1/ip/gtwizard_ultrascale_0/sim/gtwizard_ultrascale_v1_7_gthe3_common.v" \
"../../../../vivado_project.gen/sources_1/ip/gtwizard_ultrascale_0/sim/gtwizard_ultrascale_0_gthe3_common_wrapper.v" \
"../../../../vivado_project.gen/sources_1/ip/gtwizard_ultrascale_0/sim/gtwizard_ultrascale_0_gtwizard_gthe3.v" \
"../../../../vivado_project.gen/sources_1/ip/gtwizard_ultrascale_0/sim/gtwizard_ultrascale_0_gtwizard_top.v" \
"../../../../vivado_project.gen/sources_1/ip/gtwizard_ultrascale_0/sim/gtwizard_ultrascale_0.v" \

verilog xil_defaultlib "glbl.v"

nosort
